%YAML 1.1
%TAG !u! tag:unity3d.com,2011:
--- !u!21 &2100000
Material:
  serializedVersion: 6
  m_ObjectHideFlags: 0
  m_CorrespondingSourceObject: {fileID: 0}
  m_PrefabInstance: {fileID: 0}
  m_PrefabAsset: {fileID: 0}
  m_Name: decal_bulletin_danger_caution_a_01
  m_Shader: {fileID: 4800000, guid: 933532a4fcc9baf4fa0491de14d08ed7, type: 3}
  m_ShaderKeywords: _NORMALMAP
  m_LightmapFlags: 4
  m_EnableInstancingVariants: 0
  m_DoubleSidedGI: 0
  m_CustomRenderQueue: 2000
  stringTagMap:
    RenderType: Opaque
  disabledShaderPasses: []
  m_SavedProperties:
    serializedVersion: 3
    m_TexEnvs:
    - _Ao2Map:
        m_Texture: {fileID: 0}
        m_Scale: {x: 1, y: 1}
        m_Offset: {x: 0, y: 0}
    - _BaseMap:
        m_Texture: {fileID: 2800000, guid: 4b11f35f206b99444a107391f5cd9223, type: 3}
        m_Scale: {x: 1, y: 1}
        m_Offset: {x: 0, y: 0}
    - _BumpMap:
        m_Texture: {fileID: 2800000, guid: c32685815f10b994cbf13c0337e1e79c, type: 3}
        m_Scale: {x: 1, y: 1}
        m_Offset: {x: 0, y: 0}
    - _DecalTex:
        m_Texture: {fileID: 0}
        m_Scale: {x: 1, y: 1}
        m_Offset: {x: 0, y: 0}
    - _DetailAlbedoMap:
        m_Texture: {fileID: 0}
        m_Scale: {x: 1, y: 1}
        m_Offset: {x: 0, y: 0}
    - _DetailMask:
        m_Texture: {fileID: 0}
        m_Scale: {x: 1, y: 1}
        m_Offset: {x: 0, y: 0}
    - _DetailMaterialMap:
        m_Texture: {fileID: 0}
        m_Scale: {x: 1, y: 1}
        m_Offset: {x: 0, y: 0}
    - _DetailNormalMap:
        m_Texture: {fileID: 0}
        m_Scale: {x: 1, y: 1}
        m_Offset: {x: 0, y: 0}
    - _DissolveTex:
        m_Texture: {fileID: 0}
        m_Scale: {x: 1, y: 1}
        m_Offset: {x: 0, y: 0}
    - _EmissionMap:
        m_Texture: {fileID: 0}
        m_Scale: {x: 1, y: 1}
        m_Offset: {x: 0, y: 0}
    - _IncandescenceMap:
        m_Texture: {fileID: 0}
        m_Scale: {x: 1, y: 1}
        m_Offset: {x: 0, y: 0}
    - _MainTex:
        m_Texture: {fileID: 2800000, guid: 4b11f35f206b99444a107391f5cd9223, type: 3}
        m_Scale: {x: 1, y: 1}
        m_Offset: {x: 0, y: 0}
    - _MetallicGlossMap:
        m_Texture: {fileID: 0}
        m_Scale: {x: 1, y: 1}
        m_Offset: {x: 0, y: 0}
    - _OcclusionMap:
        m_Texture: {fileID: 0}
        m_Scale: {x: 1, y: 1}
        m_Offset: {x: 0, y: 0}
    - _ParallaxMap:
        m_Texture: {fileID: 0}
        m_Scale: {x: 1, y: 1}
        m_Offset: {x: 0, y: 0}
    - _RimTex:
        m_Texture: {fileID: 0}
        m_Scale: {x: 1, y: 1}
        m_Offset: {x: 0, y: 0}
    - _SpecGlossMap:
        m_Texture: {fileID: 0}
        m_Scale: {x: 1, y: 1}
        m_Offset: {x: 0, y: 0}
    - _SpecTex:
        m_Texture: {fileID: 2800000, guid: c97c48e5ce6e4bd4192ceeee6e60a8a9, type: 3}
        m_Scale: {x: 1, y: 1}
        m_Offset: {x: 0, y: 0}
    - _TeamColorMaskMap:
        m_Texture: {fileID: 0}
        m_Scale: {x: 1, y: 1}
        m_Offset: {x: 0, y: 0}
    m_Floats:
    - _AO2: 0
    - _AlphaClip: 0
    - _AlphaTestRef: 0.5
    - _Ao2MapUV: 1
    - _Blend: 0
    - _BumpMode: 0
    - _BumpScale: 1
    - _Cull: 2
    - _Cutoff: 0.5
    - _Decal: 0
    - _DecalSpecularity: 1
    - _DecalTexUV: 0
    - _DecalVertexInfluence: 0
    - _DecalWeight: 1
    - _DetailMode: 0
    - _DetailNormalMapScale: 1
    - _DetailT: 0
    - _Dissolve: 0
    - _DissolveCutoff: 0
    - _DissolveEdgeWidth: 0.05
    - _DissolveGlowGainUI: 0
    - _DissolveGlowWeightUI: 0
    - _DissolveTexUV: 0
    - _DstBlend: 0
    - _Emission: 0
    - _EmissionGainUI: 0
    - _EmissionWeightUI: 0
    - _EnvironmentReflections: 1
    - _GlossMapScale: 1
    - _Glossiness: 0
    - _GlossyReflections: 1
    - _IncandescenceMapUV: 0
    - _Lightmapping: 1
    - _MaxSamples: 20
    - _Metallic: 0
    - _MinSamples: 4
    - _Mode: 0
    - _OcclusionStrength: 1
    - _Parallax: 0.02
    - _ParallaxT: 0
    - _QueueOffset: 0
    - _ReceiveShadows: 1
    - _Rim: 0
    - _RimBias: 0
    - _RimGainUI: 0
    - _RimPower: 4
    - _RimTexUV: 0
    - _RimWeightUI: 0
    - _Roughness: 1
    - _Smoothness: 0
    - _SmoothnessTextureChannel: 0
    - _SpecularHighlights: 1
    - _Specularity: 1
    - _SrcBlend: 1
    - _Surface: 0
    - _TeamColor: 0
    - _UVSec: 0
    - _WorkflowMode: 1
    - _ZWrite: 1
    m_Colors:
    - _BaseColor: {r: 1, g: 1, b: 1, a: 1}
    - _Color: {r: 1, g: 1, b: 1, a: 1}
    - _DecalColor: {r: 1, g: 1, b: 1, a: 1}
    - _DissolveColor: {r: 1, g: 1, b: 1, a: 1}
    - _DissolveTintUI: {r: 1, g: 1, b: 1, a: 1}
    - _EmissionColor: {r: 0, g: 0, b: 0, a: 1}
    - _EmissionTintUI: {r: 1, g: 1, b: 1, a: 1}
    - _IncandescenceMapVelocity: {r: 0, g: 0, b: 0, a: 0}
    - _RimColor: {r: 1, g: 1, b: 1, a: 1}
    - _RimTexVelocity: {r: 0, g: 0, b: 0, a: 0}
    - _RimTintUI: {r: 1, g: 1, b: 1, a: 1}
    - _SpecColor: {r: 0.19999996, g: 0.19999996, b: 0.19999996, a: 1}
    - _TeamColor0: {r: 1, g: 1, b: 1, a: 1}
    - _TeamColor1: {r: 1, g: 1, b: 1, a: 1}
    - _TeamColor2: {r: 1, g: 1, b: 1, a: 1}
    - _TeamColor3: {r: 1, g: 1, b: 1, a: 1}
--- !u!114 &8049802649000064527
MonoBehaviour:
  m_ObjectHideFlags: 11
  m_CorrespondingSourceObject: {fileID: 0}
  m_PrefabInstance: {fileID: 0}
  m_PrefabAsset: {fileID: 0}
  m_GameObject: {fileID: 0}
  m_Enabled: 1
  m_EditorHideFlags: 0
  m_Script: {fileID: 11500000, guid: d0353a89b1f911e48b9e16bdc9f2e058, type: 3}
  m_Name: 
  m_EditorClassIdentifier: 
  version: 2
